FIR_10.vcd
$date
  Fri Oct 27 15:41:10 2017
$end
$version
  GHDL v0
$end
$timescale
  1 fs
$end
$var reg 1 ! clk_out $end
$var reg 1 " clk $end
$var reg 1 # wr $end
$var reg 1 $ reset $end
$var reg 1 % rd $end
$var reg 1 & ready_sign $end
$var reg 16 ' x[15:0] $end
$var reg 32 ( y[31:0] $end
$scope module u0 $end
$var reg 1 ) clk $end
$var reg 1 * wr $end
$var reg 1 + reset $end
$var reg 1 , rd $end
$var reg 16 - data[15:0] $end
$var integer 32 . counter $end
$upscope $end
$scope module u1 $end
$var reg 16 / data_in[15:0] $end
$var reg 1 0 clk $end
$var reg 1 1 reset $end
$var reg 1 2 wr $end
$var reg 32 3 data_out[31:0] $end
$var reg 1 4 ready_sign $end
$var reg 1 5 clock_out $end
$var reg 16 6 mac_in[15:0] $end
$var reg 16 7 mac_coeffs[15:0] $end
$var reg 1 8 wr_reg $end
$var reg 1 9 reset_mac $end
$var integer 32 : dir $end
$var reg 32 ; mac_out[31:0] $end
$scope module clk_d $end
$var reg 1 < clk_in $end
$var reg 1 = rst $end
$var reg 1 > clk_out $end
$upscope $end
$scope module reg0 $end
$var reg 16 ? data_in[15:0] $end
$var reg 1 @ clk $end
$var reg 1 A reset $end
$var reg 1 B wr $end
$var integer 32 C dir $end
$var reg 16 D x_out[15:0] $end
$var reg 16 E c_out[15:0] $end
$comment mem is not handled $end
$upscope $end
$scope module mac_process $end
$var reg 16 F x[15:0] $end
$var reg 16 G coeff[15:0] $end
$var reg 1 H reset $end
$var reg 1 I wr_mac $end
$var reg 1 J clk_mac $end
$var reg 32 K output[31:0] $end
$var reg 32 L out_internal[31:0] $end
$upscope $end
$scope module fsm_process $end
$var reg 1 M reset $end
$var reg 1 N clk $end
$var reg 1 O wr $end
$var reg 1 P wr_reg $end
$var reg 1 Q ready_signal $end
$var integer 32 R dir $end
$var reg 32 S mac_out[31:0] $end
$var reg 32 T data_out[31:0] $end
$comment state is not handled $end
$comment nxt_state is not handled $end
$upscope $end
$upscope $end
$enddefinitions $end
#0
1!
1"
1#
1$
0%
0&
b0000000000010000 '
bUUUUUUUUUUUUUUUUUUUUUUUUUUUUUUUU (
1)
1*
1+
0,
b0000000000010000 -
b1111 .
b0000000000010000 /
10
11
02
bUUUUUUUUUUUUUUUUUUUUUUUUUUUUUUUU 3
04
15
bUUUUUUUUUUUUUUUU 6
bUUUUUUUUUUUUUUUU 7
08
U9
b0 :
b00000000000000000000000000000000 ;
1<
1=
1>
b0000000000010000 ?
1@
1A
0B
b0 C
bUUUUUUUUUUUUUUUU D
bUUUUUUUUUUUUUUUU E
bUUUUUUUUUUUUUUUU F
bUUUUUUUUUUUUUUUU G
1H
0I
1J
b00000000000000000000000000000000 K
b00000000000000000000000000000000 L
1M
1N
0O
0P
0Q
b0 R
b00000000000000000000000000000000 S
bUUUUUUUUUUUUUUUUUUUUUUUUUUUUUUUU T
#50000000
0"
0$
0+
00
01
0<
0=
0@
0A
0H
0J
0M
0N
#100000000
1"
10
b0000000000000000 6
b1111000111001010 7
1<
1@
b0000000000000000 D
b1111000111001010 E
b0000000000000000 F
b1111000111001010 G
1J
1N
#150000000
0"
00
0<
0@
0J
0N
#200000000
1"
10
1<
1@
1J
1N
#250000000
0"
00
0<
0@
0J
0N
#300000000
1"
10
1<
1@
1J
1N
#350000000
0"
00
0<
0@
0J
0N
#400000000
1"
10
1<
1@
1J
1N
#450000000
0"
00
0<
0@
0J
0N
#500000000
1"
10
1<
1@
1J
1N
#550000000
0"
00
0<
0@
0J
0N
#600000000
1"
10
1<
1@
1J
1N
#650000000
0"
00
0<
0@
0J
0N
#700000000
0!
1"
0)
10
05
1<
0>
1@
1J
1N
#750000000
0"
00
0<
0@
0J
0N
#800000000
1"
10
1<
1@
1J
1N
#850000000
0"
00
0<
0@
0J
0N
#900000000
1"
10
1<
1@
1J
1N
#950000000
0"
00
0<
0@
0J
0N
#1000000000
1"
10
1<
1@
1J
1N
#1050000000
0"
00
0<
0@
0J
0N
#1100000000
1"
10
1<
1@
1J
1N
#1150000000
0"
00
0<
0@
0J
0N
#1200000000
1"
10
1<
1@
1J
1N
#1250000000
0"
00
0<
0@
0J
0N
#1300000000
1"
10
1<
1@
1J
1N
#1350000000
0"
00
0<
0@
0J
0N
#1400000000
1!
1"
1%
b0000000000000001 '
1)
1,
b0000000000000001 -
b0 .
b0000000000000001 /
10
12
15
1<
1>
b0000000000000001 ?
1@
1I
1J
1N
1O
#1450000000
0"
00
0<
0@
0J
0N
#1500000000
1"
10
18
1<
1@
1B
1J
1N
1P
#1550000000
0"
00
0<
0@
0J
0N
#1600000000
1"
10
08
b1 :
1<
1@
0B
b1 C
1J
1N
0P
b1 R
#1650000000
0"
00
0<
0@
0J
0N
#1700000000
1"
10
b0000110100011100 7
b10 :
1<
1@
b10 C
b0000110100011100 E
b0000110100011100 G
1J
1N
b10 R
#1750000000
0"
00
0<
0@
0J
0N
#1800000000
1"
10
b0001000110001111 7
b11 :
1<
1@
b11 C
b0001000110001111 E
b0001000110001111 G
1J
1N
b11 R
#1850000000
0"
00
0<
0@
0J
0N
#1900000000
1"
10
b0001011110101100 7
b100 :
1<
1@
b100 C
b0001011110101100 E
b0001011110101100 G
1J
1N
b100 R
#1950000000
0"
00
0<
0@
0J
0N
#2000000000
1"
10
b0001110010100111 7
b101 :
1<
1@
b101 C
b0001110010100111 E
b0001110010100111 G
1J
1N
b101 R
#2050000000
0"
00
0<
0@
0J
0N
#2100000000
0!
1"
0)
10
05
b0001111010001011 7
b110 :
1<
0>
1@
b110 C
b0001111010001011 E
b0001111010001011 G
1J
1N
b110 R
#2150000000
0"
00
0<
0@
0J
0N
#2200000000
1"
10
b0001110010100111 7
b111 :
1<
1@
b111 C
b0001110010100111 E
b0001110010100111 G
1J
1N
b111 R
#2250000000
0"
00
0<
0@
0J
0N
#2300000000
1"
10
b0001011110101100 7
b1000 :
1<
1@
b1000 C
b0001011110101100 E
b0001011110101100 G
1J
1N
b1000 R
#2350000000
0"
00
0<
0@
0J
0N
#2400000000
1"
10
b0001000110001111 7
b1001 :
1<
1@
b1001 C
b0001000110001111 E
b0001000110001111 G
1J
1N
b1001 R
#2450000000
0"
00
0<
0@
0J
0N
#2500000000
1"
10
b0000110100011100 7
b1010 :
1<
1@
b1010 C
b0000110100011100 E
b0000110100011100 G
1J
1N
b1010 R
#2550000000
0"
00
0<
0@
0J
0N
#2600000000
1"
1&
b00000000000000000000000000000000 (
10
b00000000000000000000000000000000 3
14
b1111000111001010 7
b0 :
1<
1@
b0 C
b1111000111001010 E
b1111000111001010 G
1J
1N
1Q
b0 R
b00000000000000000000000000000000 T
#2650000000
0"
00
0<
0@
0J
0N
#2700000000
1"
0&
10
04
b0000000000000001 6
1<
1@
b0000000000000001 D
b0000000000000001 F
1J
1N
0Q
#2750000000
0"
00
0<
0@
0J
0N
#2800000000
1!
1"
b0000000000000010 '
1)
b0000000000000010 -
b1 .
b0000000000000010 /
10
15
b11111111111111111111000111001010 ;
1<
1>
b0000000000000010 ?
1@
1J
b11111111111111111111000111001010 K
b11111111111111111111000111001010 L
1N
b11111111111111111111000111001010 S
#2850000000
0"
00
0<
0@
0J
0N
#2900000000
1"
10
18
b11111111111111111110001110010100 ;
1<
1@
1B
1J
b11111111111111111110001110010100 K
b11111111111111111110001110010100 L
1N
1P
b11111111111111111110001110010100 S
#2950000000
0"
00
0<
0@
0J
0N
#3000000000
1"
10
08
b1 :
b11111111111111111101010101011110 ;
1<
1@
0B
b1 C
1J
b11111111111111111101010101011110 K
b11111111111111111101010101011110 L
1N
0P
b1 R
b11111111111111111101010101011110 S
#3050000000
0"
00
0<
0@
0J
0N
#3100000000
1"
10
b0000110100011100 7
b10 :
b11111111111111111100011100101000 ;
1<
1@
b10 C
b0000110100011100 E
b0000110100011100 G
1J
b11111111111111111100011100101000 K
b11111111111111111100011100101000 L
1N
b10 R
b11111111111111111100011100101000 S
#3150000000
0"
00
0<
0@
0J
0N
#3200000000
1"
10
b0000000000000000 6
b0001000110001111 7
b11 :
b11111111111111111101010001000100 ;
1<
1@
b11 C
b0000000000000000 D
b0001000110001111 E
b0000000000000000 F
b0001000110001111 G
1J
b11111111111111111101010001000100 K
b11111111111111111101010001000100 L
1N
b11 R
b11111111111111111101010001000100 S
#3250000000
0"
00
0<
0@
0J
0N
#3300000000
1"
10
b0001011110101100 7
b100 :
1<
1@
b100 C
b0001011110101100 E
b0001011110101100 G
1J
1N
b100 R
#3350000000
0"
00
0<
0@
0J
0N
#3400000000
1"
10
b0001110010100111 7
b101 :
1<
1@
b101 C
b0001110010100111 E
b0001110010100111 G
1J
1N
b101 R
#3450000000
0"
00
0<
0@
0J
0N
#3500000000
0!
1"
0)
10
05
b0001111010001011 7
b110 :
1<
0>
1@
b110 C
b0001111010001011 E
b0001111010001011 G
1J
1N
b110 R
#3550000000
0"
00
0<
0@
0J
0N
#3600000000
1"
10
b0001110010100111 7
b111 :
1<
1@
b111 C
b0001110010100111 E
b0001110010100111 G
1J
1N
b111 R
#3650000000
0"
00
0<
0@
0J
0N
#3700000000
1"
10
b0001011110101100 7
b1000 :
1<
1@
b1000 C
b0001011110101100 E
b0001011110101100 G
1J
1N
b1000 R
#3750000000
0"
00
0<
0@
0J
0N
#3800000000
1"
10
b0001000110001111 7
b1001 :
1<
1@
b1001 C
b0001000110001111 E
b0001000110001111 G
1J
1N
b1001 R
#3850000000
0"
00
0<
0@
0J
0N
#3900000000
1"
10
b0000110100011100 7
b1010 :
1<
1@
b1010 C
b0000110100011100 E
b0000110100011100 G
1J
1N
b1010 R
#3950000000
0"
00
0<
0@
0J
0N
#4000000000
1"
1&
b11111111111111111101010001000100 (
10
b11111111111111111101010001000100 3
14
b1111000111001010 7
b0 :
1<
1@
b0 C
b1111000111001010 E
b1111000111001010 G
1J
1N
1Q
b0 R
b11111111111111111101010001000100 T
#4050000000
0"
00
0<
0@
0J
0N
#4100000000
1"
0&
10
04
b0000000000000010 6
1<
1@
b0000000000000010 D
b0000000000000010 F
1J
1N
0Q
#4150000000
0"
00
0<
0@
0J
0N
#4200000000
1!
1"
b0000000000000011 '
1)
b0000000000000011 -
b10 .
b0000000000000011 /
10
15
b11111111111111111011011111011000 ;
1<
1>
b0000000000000011 ?
1@
1J
b11111111111111111011011111011000 K
b11111111111111111011011111011000 L
1N
b11111111111111111011011111011000 S
#4250000000
0"
00
0<
0@
0J
0N
#4300000000
1"
10
18
b11111111111111111001101101101100 ;
1<
1@
1B
1J
b11111111111111111001101101101100 K
b11111111111111111001101101101100 L
1N
1P
b11111111111111111001101101101100 S
#4350000000
0"
00
0<
0@
0J
0N
#4400000000
1"
10
08
b1 :
b11111111111111110111111100000000 ;
1<
1@
0B
b1 C
1J
b11111111111111110111111100000000 K
b11111111111111110111111100000000 L
1N
0P
b1 R
b11111111111111110111111100000000 S
#4450000000
0"
00
0<
0@
0J
0N
#4500000000
1"
10
b0000110100011100 7
b10 :
b11111111111111110110001010010100 ;
1<
1@
b10 C
b0000110100011100 E
b0000110100011100 G
1J
b11111111111111110110001010010100 K
b11111111111111110110001010010100 L
1N
b10 R
b11111111111111110110001010010100 S
#4550000000
0"
00
0<
0@
0J
0N
#4600000000
1"
10
b0000000000000001 6
b0001000110001111 7
b11 :
b11111111111111110111110011001100 ;
1<
1@
b11 C
b0000000000000001 D
b0001000110001111 E
b0000000000000001 F
b0001000110001111 G
1J
b11111111111111110111110011001100 K
b11111111111111110111110011001100 L
1N
b11 R
b11111111111111110111110011001100 S
#4650000000
0"
00
0<
0@
0J
0N
#4700000000
1"
10
b0000000000000000 6
b0001011110101100 7
b100 :
b11111111111111111000111001011011 ;
1<
1@
b100 C
b0000000000000000 D
b0001011110101100 E
b0000000000000000 F
b0001011110101100 G
1J
b11111111111111111000111001011011 K
b11111111111111111000111001011011 L
1N
b100 R
b11111111111111111000111001011011 S
#4750000000
0"
00
0<
0@
0J
0N
#4800000000
1"
10
b0001110010100111 7
b101 :
1<
1@
b101 C
b0001110010100111 E
b0001110010100111 G
1J
1N
b101 R
#4850000000
0"
00
0<
0@
0J
0N
#4900000000
0!
1"
0)
10
05
b0001111010001011 7
b110 :
1<
0>
1@
b110 C
b0001111010001011 E
b0001111010001011 G
1J
1N
b110 R
#4950000000
0"
00
0<
0@
0J
0N
#5000000000
1"
10
b0001110010100111 7
b111 :
1<
1@
b111 C
b0001110010100111 E
b0001110010100111 G
1J
1N
b111 R
#5050000000
0"
00
0<
0@
0J
0N
#5100000000
1"
10
b0001011110101100 7
b1000 :
1<
1@
b1000 C
b0001011110101100 E
b0001011110101100 G
1J
1N
b1000 R
#5150000000
0"
00
0<
0@
0J
0N
#5200000000
1"
10
b0001000110001111 7
b1001 :
1<
1@
b1001 C
b0001000110001111 E
b0001000110001111 G
1J
1N
b1001 R
#5250000000
0"
00
0<
0@
0J
0N
#5300000000
1"
10
b0000110100011100 7
b1010 :
1<
1@
b1010 C
b0000110100011100 E
b0000110100011100 G
1J
1N
b1010 R
#5350000000
0"
00
0<
0@
0J
0N
#5400000000
1"
1&
b11111111111111111000111001011011 (
10
b11111111111111111000111001011011 3
14
b1111000111001010 7
b0 :
1<
1@
b0 C
b1111000111001010 E
b1111000111001010 G
1J
1N
1Q
b0 R
b11111111111111111000111001011011 T
#5450000000
0"
00
0<
0@
0J
0N
#5500000000
1"
0&
10
04
b0000000000000011 6
1<
1@
b0000000000000011 D
b0000000000000011 F
1J
1N
0Q
#5550000000
0"
00
0<
0@
0J
0N
#5600000000
1!
1"
b0000000000000100 '
1)
b0000000000000100 -
b11 .
b0000000000000100 /
10
15
b11111111111111110110001110111001 ;
1<
1>
b0000000000000100 ?
1@
1J
b11111111111111110110001110111001 K
b11111111111111110110001110111001 L
1N
b11111111111111110110001110111001 S
#5650000000
0"
00
0<
0@
0J
0N
#5700000000
1"
10
18
b11111111111111110011100100010111 ;
1<
1@
1B
1J
b11111111111111110011100100010111 K
b11111111111111110011100100010111 L
1N
1P
b11111111111111110011100100010111 S
#5750000000
0"
00
0<
0@
0J
0N
#5800000000
1"
10
08
b1 :
b11111111111111110000111001110101 ;
1<
1@
0B
b1 C
1J
b11111111111111110000111001110101 K
b11111111111111110000111001110101 L
1N
0P
b1 R
b11111111111111110000111001110101 S
#5850000000
0"
00
0<
0@
0J
0N
#5900000000
1"
10
b0000110100011100 7
b10 :
b11111111111111101110001111010011 ;
1<
1@
b10 C
b0000110100011100 E
b0000110100011100 G
1J
b11111111111111101110001111010011 K
b11111111111111101110001111010011 L
1N
b10 R
b11111111111111101110001111010011 S
#5950000000
0"
00
0<
0@
0J
0N
#6000000000
1"
10
b0000000000000010 6
b0001000110001111 7
b11 :
b11111111111111110000101100100111 ;
1<
1@
b11 C
b0000000000000010 D
b0001000110001111 E
b0000000000000010 F
b0001000110001111 G
1J
b11111111111111110000101100100111 K
b11111111111111110000101100100111 L
1N
b11 R
b11111111111111110000101100100111 S
#6050000000
0"
00
0<
0@
0J
0N
#6100000000
1"
10
b0000000000000001 6
b0001011110101100 7
b100 :
b11111111111111110010111001000101 ;
1<
1@
b100 C
b0000000000000001 D
b0001011110101100 E
b0000000000000001 F
b0001011110101100 G
1J
b11111111111111110010111001000101 K
b11111111111111110010111001000101 L
1N
b100 R
b11111111111111110010111001000101 S
#6150000000
0"
00
0<
0@
0J
0N
#6200000000
1"
10
b0000000000000000 6
b0001110010100111 7
b101 :
b11111111111111110100010111110001 ;
1<
1@
b101 C
b0000000000000000 D
b0001110010100111 E
b0000000000000000 F
b0001110010100111 G
1J
b11111111111111110100010111110001 K
b11111111111111110100010111110001 L
1N
b101 R
b11111111111111110100010111110001 S
#6250000000
0"
00
0<
0@
0J
0N
#6300000000
0!
1"
0)
10
05
b0001111010001011 7
b110 :
1<
0>
1@
b110 C
b0001111010001011 E
b0001111010001011 G
1J
1N
b110 R
#6350000000
0"
00
0<
0@
0J
0N
#6400000000
1"
10
b0001110010100111 7
b111 :
1<
1@
b111 C
b0001110010100111 E
b0001110010100111 G
1J
1N
b111 R
#6450000000
0"
00
0<
0@
0J
0N
#6500000000
1"
10
b0001011110101100 7
b1000 :
1<
1@
b1000 C
b0001011110101100 E
b0001011110101100 G
1J
1N
b1000 R
#6550000000
0"
00
0<
0@
0J
0N
#6600000000
1"
10
b0001000110001111 7
b1001 :
1<
1@
b1001 C
b0001000110001111 E
b0001000110001111 G
1J
1N
b1001 R
#6650000000
0"
00
0<
0@
0J
0N
#6700000000
1"
10
b0000110100011100 7
b1010 :
1<
1@
b1010 C
b0000110100011100 E
b0000110100011100 G
1J
1N
b1010 R
#6750000000
0"
00
0<
0@
0J
0N
#6800000000
1"
1&
b11111111111111110100010111110001 (
10
b11111111111111110100010111110001 3
14
b1111000111001010 7
b0 :
1<
1@
b0 C
b1111000111001010 E
b1111000111001010 G
1J
1N
1Q
b0 R
b11111111111111110100010111110001 T
#6850000000
0"
00
0<
0@
0J
0N
#6900000000
1"
0&
10
04
b0000000000000100 6
1<
1@
b0000000000000100 D
b0000000000000100 F
1J
1N
0Q
#6950000000
0"
00
0<
0@
0J
0N
#7000000000
1!
1"
b0000000000000101 '
1)
b0000000000000101 -
b100 .
b0000000000000101 /
10
15
b11111111111111110000110100011001 ;
1<
1>
b0000000000000101 ?
1@
1J
b11111111111111110000110100011001 K
b11111111111111110000110100011001 L
1N
b11111111111111110000110100011001 S
#7050000000
0"
00
0<
0@
0J
0N
#7100000000
1"
10
18
b11111111111111101101010001000001 ;
1<
1@
1B
1J
b11111111111111101101010001000001 K
b11111111111111101101010001000001 L
1N
1P
b11111111111111101101010001000001 S
#7150000000
0"
00
0<
0@
0J
0N
#7200000000
1"
10
08
b1 :
b11111111111111101001101101101001 ;
1<
1@
0B
b1 C
1J
b11111111111111101001101101101001 K
b11111111111111101001101101101001 L
1N
0P
b1 R
b11111111111111101001101101101001 S
#7250000000
0"
00
0<
0@
0J
0N
#7300000000
1"
10
b0000110100011100 7
b10 :
b11111111111111100110001010010001 ;
1<
1@
b10 C
b0000110100011100 E
b0000110100011100 G
1J
b11111111111111100110001010010001 K
b11111111111111100110001010010001 L
1N
b10 R
b11111111111111100110001010010001 S
#7350000000
0"
00
0<
0@
0J
0N
#7400000000
1"
10
b0000000000000011 6
b0001000110001111 7
b11 :
b11111111111111101001011100000001 ;
1<
1@
b11 C
b0000000000000011 D
b0001000110001111 E
b0000000000000011 F
b0001000110001111 G
1J
b11111111111111101001011100000001 K
b11111111111111101001011100000001 L
1N
b11 R
b11111111111111101001011100000001 S
#7450000000
0"
00
0<
0@
0J
0N
#7500000000
1"
10
b0000000000000010 6
b0001011110101100 7
b100 :
b11111111111111101100101110101110 ;
1<
1@
b100 C
b0000000000000010 D
b0001011110101100 E
b0000000000000010 F
b0001011110101100 G
1J
b11111111111111101100101110101110 K
b11111111111111101100101110101110 L
1N
b100 R
b11111111111111101100101110101110 S
#7550000000
0"
00
0<
0@
0J
0N
#7600000000
1"
10
b0000000000000001 6
b0001110010100111 7
b101 :
b11111111111111101111101100000110 ;
1<
1@
b101 C
b0000000000000001 D
b0001110010100111 E
b0000000000000001 F
b0001110010100111 G
1J
b11111111111111101111101100000110 K
b11111111111111101111101100000110 L
1N
b101 R
b11111111111111101111101100000110 S
#7650000000
0"
00
0<
0@
0J
0N
#7700000000
0!
1"
0)
10
05
b0000000000000000 6
b0001111010001011 7
b110 :
b11111111111111110001011110101101 ;
1<
0>
1@
b110 C
b0000000000000000 D
b0001111010001011 E
b0000000000000000 F
b0001111010001011 G
1J
b11111111111111110001011110101101 K
b11111111111111110001011110101101 L
1N
b110 R
b11111111111111110001011110101101 S
#7750000000
0"
00
0<
0@
0J
0N
#7800000000
1"
10
b0001110010100111 7
b111 :
1<
1@
b111 C
b0001110010100111 E
b0001110010100111 G
1J
1N
b111 R
#7850000000
0"
00
0<
0@
0J
0N
#7900000000
1"
10
b0001011110101100 7
b1000 :
1<
1@
b1000 C
b0001011110101100 E
b0001011110101100 G
1J
1N
b1000 R
#7950000000
0"
00
0<
0@
0J
0N
#8000000000
1"
10
b0001000110001111 7
b1001 :
1<
1@
b1001 C
b0001000110001111 E
b0001000110001111 G
1J
1N
b1001 R
#8050000000
0"
00
0<
0@
0J
0N
#8100000000
1"
10
b0000110100011100 7
b1010 :
1<
1@
b1010 C
b0000110100011100 E
b0000110100011100 G
1J
1N
b1010 R
#8150000000
0"
00
0<
0@
0J
0N
#8200000000
1"
1&
b11111111111111110001011110101101 (
10
b11111111111111110001011110101101 3
14
b1111000111001010 7
b0 :
1<
1@
b0 C
b1111000111001010 E
b1111000111001010 G
1J
1N
1Q
b0 R
b11111111111111110001011110101101 T
#8250000000
0"
00
0<
0@
0J
0N
#8300000000
1"
0&
10
04
b0000000000000101 6
1<
1@
b0000000000000101 D
b0000000000000101 F
1J
1N
0Q
#8350000000
0"
00
0<
0@
0J
0N
#8400000000
1!
1"
b0000000000000110 '
1)
b0000000000000110 -
b101 .
b0000000000000110 /
10
15
b11111111111111101101000010011111 ;
1<
1>
b0000000000000110 ?
1@
1J
b11111111111111101101000010011111 K
b11111111111111101101000010011111 L
1N
b11111111111111101101000010011111 S
#8450000000
0"
00
0<
0@
0J
0N
#8500000000
1"
10
18
b11111111111111101000100110010001 ;
1<
1@
1B
1J
b11111111111111101000100110010001 K
b11111111111111101000100110010001 L
1N
1P
b11111111111111101000100110010001 S
#8550000000
0"
00
0<
0@
0J
0N
#8600000000
1"
10
08
b1 :
b11111111111111100100001010000011 ;
1<
1@
0B
b1 C
1J
b11111111111111100100001010000011 K
b11111111111111100100001010000011 L
1N
0P
b1 R
b11111111111111100100001010000011 S
#8650000000
0"
00
0<
0@
0J
0N
#8700000000
1"
10
b0000110100011100 7
b10 :
b11111111111111011111101101110101 ;
1<
1@
b10 C
b0000110100011100 E
b0000110100011100 G
1J
b11111111111111011111101101110101 K
b11111111111111011111101101110101 L
1N
b10 R
b11111111111111011111101101110101 S
#8750000000
0"
00
0<
0@
0J
0N
#8800000000
1"
10
b0000000000000100 6
b0001000110001111 7
b11 :
b11111111111111100011110100000001 ;
1<
1@
b11 C
b0000000000000100 D
b0001000110001111 E
b0000000000000100 F
b0001000110001111 G
1J
b11111111111111100011110100000001 K
b11111111111111100011110100000001 L
1N
b11 R
b11111111111111100011110100000001 S
#8850000000
0"
00
0<
0@
0J
0N
#8900000000
1"
10
b0000000000000011 6
b0001011110101100 7
b100 :
b11111111111111101000001100111101 ;
1<
1@
b100 C
b0000000000000011 D
b0001011110101100 E
b0000000000000011 F
b0001011110101100 G
1J
b11111111111111101000001100111101 K
b11111111111111101000001100111101 L
1N
b100 R
b11111111111111101000001100111101 S
#8950000000
0"
00
0<
0@
0J
0N
#9000000000
1"
10
b0000000000000010 6
b0001110010100111 7
b101 :
b11111111111111101100101001000001 ;
1<
1@
b101 C
b0000000000000010 D
b0001110010100111 E
b0000000000000010 F
b0001110010100111 G
1J
b11111111111111101100101001000001 K
b11111111111111101100101001000001 L
1N
b101 R
b11111111111111101100101001000001 S
#9050000000
0"
00
0<
0@
0J
0N
#9100000000
0!
1"
0)
10
05
b0000000000000001 6
b0001111010001011 7
b110 :
b11111111111111110000001110001111 ;
1<
0>
1@
b110 C
b0000000000000001 D
b0001111010001011 E
b0000000000000001 F
b0001111010001011 G
1J
b11111111111111110000001110001111 K
b11111111111111110000001110001111 L
1N
b110 R
b11111111111111110000001110001111 S
#9150000000
0"
00
0<
0@
0J
0N
#9200000000
1"
10
b0000000000000000 6
b0001110010100111 7
b111 :
b11111111111111110010001000011010 ;
1<
1@
b111 C
b0000000000000000 D
b0001110010100111 E
b0000000000000000 F
b0001110010100111 G
1J
b11111111111111110010001000011010 K
b11111111111111110010001000011010 L
1N
b111 R
b11111111111111110010001000011010 S
#9250000000
0"
00
0<
0@
0J
0N
#9300000000
1"
10
b0001011110101100 7
b1000 :
1<
1@
b1000 C
b0001011110101100 E
b0001011110101100 G
1J
1N
b1000 R
#9350000000
0"
00
0<
0@
0J
0N
#9400000000
1"
10
b0001000110001111 7
b1001 :
1<
1@
b1001 C
b0001000110001111 E
b0001000110001111 G
1J
1N
b1001 R
#9450000000
0"
00
0<
0@
0J
0N
#9500000000
1"
10
b0000110100011100 7
b1010 :
1<
1@
b1010 C
b0000110100011100 E
b0000110100011100 G
1J
1N
b1010 R
#9550000000
0"
00
0<
0@
0J
0N
#9600000000
1"
1&
b11111111111111110010001000011010 (
10
b11111111111111110010001000011010 3
14
b1111000111001010 7
b0 :
1<
1@
b0 C
b1111000111001010 E
b1111000111001010 G
1J
1N
1Q
b0 R
b11111111111111110010001000011010 T
#9650000000
0"
00
0<
0@
0J
0N
#9700000000
1"
0&
10
04
b0000000000000110 6
1<
1@
b0000000000000110 D
b0000000000000110 F
1J
1N
0Q
#9750000000
0"
00
0<
0@
0J
0N
#9800000000
1!
1"
b0000000000000111 '
1)
b0000000000000111 -
b110 .
b0000000000000111 /
10
15
b11111111111111101100110011010110 ;
1<
1>
b0000000000000111 ?
1@
1J
b11111111111111101100110011010110 K
b11111111111111101100110011010110 L
1N
b11111111111111101100110011010110 S
#9850000000
0"
00
0<
0@
0J
0N
#9900000000
1"
10
18
b11111111111111100111011110010010 ;
1<
1@
1B
1J
b11111111111111100111011110010010 K
b11111111111111100111011110010010 L
1N
1P
b11111111111111100111011110010010 S
#9950000000
0"
00
0<
0@
0J
0N
#10000000000
1"
10
08
b1 :
b11111111111111100010001001001110 ;
1<
1@
0B
b1 C
1J
b11111111111111100010001001001110 K
b11111111111111100010001001001110 L
1N
0P
b1 R
b11111111111111100010001001001110 S
